<?xml version='1.0' encoding='UTF-8' standalone='no'?>
<svg viewBox="0 0 418 314" xmlns="http://www.w3.org/2000/svg" xmlns:xlink="http://www.w3.org/1999/xlink" height="314pt" width="418pt">
 <title>Figure 1</title>
 <desc>
Creator: GL2PS 1.4.2, (C) 1999-2020 C. Geuzaine
For: Octave
CreationDate: Tue Aug 29 12:53:47 2023
</desc>
 <defs/>
 <polygon points="0,0 418,0 418,314 0,314" fill="#ffffff"/>
 <g>
  <polygon points="0,314 418,314 418,0 0,0" fill="#ffffff" shape-rendering="crispEdges"/>
  <clipPath id="cp00418314">
   <polygon points="0,314 418,314 418,0 0,0"/>
  </clipPath>
  <g clip-path="url(#cp00418314)">
   <polyline points="213.55,153.882 215.435,136.653 218.857,129.87 223.221,125.188 228.272,121.894 233.825,119.742 239.726,118.623 245.835,118.476 252.02,119.258 258.157,120.934 264.126,123.467 269.813,126.816 275.11,130.932 279.917,135.763 284.138,141.245 287.689,147.31 290.491,153.882 292.477,160.878 293.59,168.21 293.784,175.786 293.024,183.509 291.288,191.278 288.566,198.993 284.859,206.551 280.183,213.851 274.563,220.792 268.041,227.278 260.666,233.214 252.501,238.513 243.619,243.094 234.104,246.88 224.047,249.805 213.55,251.811 202.719,252.851 191.669,252.886 180.516,251.889 169.384,249.845 158.395,246.75 147.674,242.613 137.344,237.453 127.527,231.302 118.342,224.203 109.9,216.212 102.31,207.395 95.6704,197.826 90.0724,187.592 85.5972,176.788 82.315,165.515 80.2846,153.882 79.5519,142.004 80.15,130 82.0981,117.994 85.4014,106.109 90.0507,94.471 96.0223,83.2051 103.278,72.4338 111.767,62.2768 121.422,52.8489 132.164,44.2591 143.902,36.6094 156.532,29.9933 169.94,24.4951 184.002,20.1885 198.585,17.136 213.55,15.3882 228.515,17.136 243.098,20.1885 257.16,24.4951 270.568,29.9933 283.198,36.6094 294.936,44.2591 305.678,52.8489 315.333,62.2768 323.821,72.4338 331.078,83.2051 337.049,94.471 341.698,106.109 345.002,117.994 346.95,130 347.548,142.004 346.815,153.882 344.785,165.515 341.503,176.788 337.027,187.592 331.429,197.826 324.79,207.395 317.199,216.212 308.758,224.203 299.572,231.302 289.756,237.453 279.426,242.613 268.705,246.75 257.716,249.845 246.583,251.889 235.431,252.886 224.381,252.851 213.55,251.811 203.053,249.805 192.996,246.88 183.481,243.094 174.599,238.513 166.434,233.214 159.059,227.278 152.537,220.792 146.917,213.851 142.241,206.551 138.534,198.993 135.811,191.278 134.076,183.509 133.316,175.786 133.51,168.21 134.623,160.878 136.609,153.882 139.411,147.31 142.961,141.245 147.183,135.763 151.989,130.932 157.287,126.816 162.974,123.467 168.943,120.934 175.08,119.258 181.265,118.476 187.373,118.623 193.275,119.742 198.828,121.894 203.879,125.188 208.243,129.87 211.665,136.653 213.55,153.882 211.665,171.11 208.243,177.894 203.879,182.575 198.828,185.869 193.275,188.021 187.373,189.14 181.265,189.287 175.08,188.505 168.943,186.829 162.974,184.296 157.287,180.947 151.989,176.831 147.183,172.001 142.961,166.518 139.411,160.453 136.609,153.882 134.623,146.885 133.51,139.553 133.316,131.977 134.076,124.254 135.811,116.485 138.534,108.77 142.241,101.212 146.917,93.9122 152.537,86.971 159.059,80.4856 166.434,74.5491 174.599,69.2498 183.481,64.6696 192.996,60.8835 203.053,57.9584 213.55,55.9519 224.381,54.9124 235.431,54.8776 246.583,55.8744 257.716,57.9182 268.705,61.0128 279.426,65.1502 289.756,70.3103 299.572,76.4614 308.758,83.5598 317.199,91.5508 324.79,100.368 331.429,109.937 337.027,120.171 341.503,130.975 344.785,142.249 346.815,153.882 347.548,165.759 346.95,177.763 345.002,189.769 341.698,201.654 337.049,213.292 331.078,224.558 323.821,235.329 315.333,245.486 305.678,254.914 294.936,263.504 283.198,271.154 270.568,277.77 257.16,283.268 243.098,287.575 228.515,290.627 213.55,292.375 198.585,290.627 184.002,287.575 169.94,283.268 156.532,277.77 143.902,271.154 132.164,263.504 121.422,254.914 111.767,245.486 103.278,235.329 96.0223,224.558 90.0507,213.292 85.4014,201.654 82.0981,189.769 80.15,177.763 79.5519,165.759 80.2846,153.882 82.315,142.249 85.5972,130.975 90.0724,120.171 95.6704,109.937 102.31,100.368 109.9,91.5508 118.342,83.5598 127.527,76.4614 137.344,70.3103 147.674,65.1502 158.395,61.0128 169.384,57.9182 180.516,55.8744 191.669,54.8776 202.719,54.9124 213.55,55.9519 224.047,57.9584 234.104,60.8835 243.619,64.6696 252.501,69.2498 260.666,74.5491 268.041,80.4856 274.563,86.971 280.183,93.9122 284.859,101.212 288.566,108.77 291.288,116.485 293.024,124.254 293.784,131.977 293.59,139.553 292.477,146.885 290.491,153.882 287.689,160.453 284.138,166.518 279.917,172.001 275.11,176.831 269.813,180.947 264.126,184.296 258.157,186.829 252.02,188.505 245.835,189.287 239.726,189.14 233.825,188.021 228.272,185.869 223.221,182.575 218.857,177.894 215.435,171.11 213.55,153.882" fill="none" stroke-linejoin="round" stroke-width="3" stroke="#0071bc" stroke-linecap="butt"/>
  </g>
 </g>
</svg>
